<?xml version="1.0" standalone="no"?>
<!DOCTYPE svg PUBLIC "-//W3C//DTD SVG 1.1//EN" "http://www.w3.org/Graphics/SVG/1.1/DTD/svg11.dtd" >
<svg xmlns="http://www.w3.org/2000/svg">
<metadata>Generated by IcoMoon</metadata>
<defs>
<font id="icomoon" horiz-adv-x="1024">
<font-face units-per-em="1024" ascent="960" descent="-64" />
<missing-glyph horiz-adv-x="1024" />
<glyph unicode="&#x20;" horiz-adv-x="512" d="" />
<glyph unicode="&#xe900;" glyph-name="search" horiz-adv-x="951" d="M658.286 475.428c0 141.143-114.857 256-256 256s-256-114.857-256-256 114.857-256 256-256 256 114.857 256 256zM950.857 0c0-40-33.143-73.143-73.143-73.143-19.429 0-38.286 8-51.429 21.714l-196 195.429c-66.857-46.286-146.857-70.857-228-70.857-222.286 0-402.286 180-402.286 402.286s180 402.286 402.286 402.286 402.286-180 402.286-402.286c0-81.143-24.571-161.143-70.857-228l196-196c13.143-13.143 21.143-32 21.143-51.429z" />
<glyph unicode="&#xe901;" glyph-name="shopping-bag" d="M927.795 805.325c-15.104 13.107-97.587 88.627-112.998 101.939-15.309 13.261-38.707 14.336-56.422 14.336h-492.749c-17.664 0-41.062-1.075-56.422-14.336-15.411-13.312-97.894-88.883-112.998-101.939-15.206-13.107-27.802-32.922-23.757-61.030 4.045-28.211 96.768-699.443 99.174-715.418 2.355-15.923 16.282-28.518 33.178-28.877h614.4c16.896 0.358 30.822 12.954 33.178 28.928 2.406 15.923 95.13 687.206 99.226 715.418 3.994 28.058-8.602 47.872-23.808 60.979zM512 359.782c-166.298 0-201.882 235.315-209.254 283.802h94.054c14.131-70.707 46.285-191.693 115.2-191.693s101.12 120.986 115.2 191.693h94.106c-7.424-48.486-43.008-283.802-209.306-283.802zM162.304 767.693l93.696 102.707h512l93.696-102.707h-699.392z" />
<glyph unicode="&#xe902;" glyph-name="user" horiz-adv-x="731" d="M731.429 151.428c0-83.429-54.857-151.429-121.714-151.429h-488c-66.857 0-121.714 68-121.714 151.429 0 150.286 37.143 324 186.857 324 46.286-45.143 109.143-73.143 178.857-73.143s132.571 28 178.857 73.143c149.714 0 186.857-173.714 186.857-324zM585.143 658.286c0-121.143-98.286-219.429-219.429-219.429s-219.429 98.286-219.429 219.429 98.286 219.429 219.429 219.429 219.429-98.286 219.429-219.429z" />
<glyph unicode="&#xe903;" glyph-name="rupee" horiz-adv-x="513" d="M513.143 682.286v-58.286c0-10.286-8-18.286-18.286-18.286h-96c-17.714-109.714-101.714-181.143-231.429-196.571 85.143-90.857 176-200.571 262.286-306.286 4.571-5.143 5.714-13.143 2.286-19.429-2.857-6.286-9.143-10.286-16.571-10.286h-111.429c-5.714 0-10.857 2.286-14.286 6.857-92 110.286-176.571 211.429-284.571 326.286-3.429 3.429-5.143 8-5.143 12.571v72.571c0 9.714 8 18.286 18.286 18.286h64c100.571 0 163.429 33.714 180 96h-244c-10.286 0-18.286 8-18.286 18.286v58.286c0 10.286 8 18.286 18.286 18.286h236c-21.714 42.857-73.143 64.571-153.143 64.571h-82.857c-10.286 0-18.286 8.571-18.286 18.286v76c0 10.286 8 18.286 18.286 18.286h475.429c10.286 0 18.286-8 18.286-18.286v-58.286c0-10.286-8-18.286-18.286-18.286h-133.143c18.286-23.429 30.286-50.857 36.571-82.286h97.714c10.286 0 18.286-8 18.286-18.286z" />
<glyph unicode="&#xe904;" glyph-name="edit" horiz-adv-x="896" d="M704 896l-128-128 192-192 128 128-192 192zM0 192l0.688-192.562 191.312 0.562 512 512-192 192-512-512zM192 64h-128v128h64v-64h64v-64z" />
<glyph unicode="&#xe905;" glyph-name="close" d="M810.667 768q18.333 0 30.5-12.167t12.167-30.5q0-18-12.333-30.333l-268.667-268.333 268.667-268.333q12.333-12.333 12.333-30.333 0-18.333-12.167-30.5t-30.5-12.167q-18 0-30.333 12.333l-268.333 268.667-268.333-268.667q-12.333-12.333-30.333-12.333-18.333 0-30.5 12.167t-12.167 30.5q0 18 12.333 30.333l268.667 268.333-268.667 268.333q-12.333 12.333-12.333 30.333 0 18.333 12.167 30.5t30.5 12.167q18 0 30.333-12.333l268.333-268.667 268.333 268.667q12.333 12.333 30.333 12.333z" />
<glyph unicode="&#xe906;" glyph-name="cake" horiz-adv-x="1258" d="M582.714 806.51c-16.516 16.653-28.291 33.663-31.871 56.051-5.459 34.145 12.423 68.662 44.23 83.792 31.993 15.218 71.633 7.449 93.453-20.009 7.439-9.362 12.702-10.102 22.93-5.023 25.677 12.743 52.037 24.107 78.179 35.911 12.242 5.529 23.147 2.586 27.501-7.124 4.579-10.211 0.083-20.151-12.126-25.731-28.81-13.174-57.669-26.239-86.606-39.134-6.272-2.795-9.865-5.58-10.244-13.848-1.18-25.702-13.13-46.434-34.246-62.364 4.383-3.939 8.789-2.377 12.717-2.39 40.428-0.124 80.86-0.39 121.283 0.090 9.209 0.108 11.372-2.731 11.318-11.587-0.364-59.352 0.090-118.709-0.405-178.059-0.085-10.211 2.638-12.833 12.774-12.751 61.069 0.49 122.147 0.005 183.216 0.511 9.808 0.080 11.935-2.584 11.86-12.082-0.467-60.212-0.227-120.428-0.243-180.643-0.005-18.599-0.034-18.506 19.196-18.46 38.278 0.090 76.563-0.302 114.83 0.333 10.412 0.173 13.543-2.142 13.484-13.21-0.511-96.342-0.206-192.686-0.457-289.028-0.021-8.267 3.1-13.277 8.283-19.727 13.36-16.635 29.972-25.994 50.202-30.702 6.21-1.445 11.821-5.069 16.651-9.465 11.883-10.815 12.402-28.802 0.916-40.126-3.002-2.958-6.566-6.099-10.446-7.284-24.507-7.493-45.032-19.962-63.224-38.861-15.156-15.745-37.188-11.22-54.636 7.116-9.759 10.255-18.375 21.093-33.668 24.159-15.572 3.123-28.436-1.311-40.064-10.75-4.62-3.75-8.050-8.933-12.273-13.218-21.49-21.815-43.613-21.808-64.602 0.764-9.426 10.136-18.253 19.993-32.798 23.134-15.536 3.358-28.361-1.319-40.066-10.67-3.644-2.911-6.321-7.015-9.555-10.464-23.96-25.545-46.509-25.594-69.893 0.87-8.512 9.633-17.443 17.131-30.219 20.158-16.005 3.794-31.030 0.163-40.613-11.731-30.983-38.448-58.121-35.575-87.132-0.191-15.396 18.777-47.236 18.839-62.566 0.15-30.653-37.374-57.432-36.355-87.145-0.101-15.254 18.612-45.639 17.337-62.96 0.325-4.29-4.212-7.994-9.016-12.26-13.254-20.323-20.171-41.679-20.233-61.931 0.018-10.211 10.211-18.625 22.146-34.605 24.998-16.034 2.862-29.326-1.386-40.939-11.886-6.357-5.748-11.543-12.833-18.070-18.349-15.672-13.241-34.816-13.182-50.432 0.121-6.512 5.547-11.917 12.371-18.047 18.39-17.474 17.154-45.985 16.751-63.25-0.17-6.133-6.011-11.501-12.88-18.037-18.388-15.639-13.179-34.793-12.949-50.476 0.17-4.267 3.57-8.492 7.434-11.801 11.86-7.304 9.775-16.873 15.412-28.583 18.114-9.22 2.127-18.179 5.167-25.95 10.776-18.212 13.145-17.629 35.96 1.169 48.202 8.007 5.214 16.955 9.274 26.126 10.379 21.219 2.558 27.801 23.173 42.905 33.123 1.913 1.26 0.857 7.315 0.86 11.148 0.044 96.773 0.25 193.548-0.227 290.318-0.054 10.915 2.78 13.396 13.396 13.22 40.417-0.669 80.86 0.178 121.278-0.542 11.096-0.196 13.148 3.265 13.063 13.626-0.511 61.931-0.034 123.869-0.493 185.802-0.070 9.465 1.925 12.121 11.821 12.036 61.069-0.539 122.147-0.023 183.218-0.521 10.286-0.083 12.815 2.914 12.738 12.895-0.447 58.921 0.041 117.847-0.459 176.768-0.085 10.182 2.591 12.924 12.771 12.763 39.129-0.614 78.274-0.25 117.411-0.25 4.618-0.003 9.227-0.003 13.84-0.003zM1137.498 259.403c-8.118-9.653-13.783-16.627-19.699-23.385-29.233-33.392-71.282-33.252-100.466 0.328-5.356 6.164-10.237 12.753-15.76 18.757-13.747 14.934-29.507 14.89-43.308-0.124-5.521-6.006-10.376-12.614-15.745-18.767-29.445-33.758-72.335-33.394-101.403 0.831-4.731 5.57-9.101 11.45-13.956 16.906-14.532 16.323-30.614 16.457-45.084 0.361-5.17-5.751-9.808-11.971-14.877-17.817-29.481-33.998-71.919-33.848-101.346 0.338-5.046 5.864-9.728 12.049-14.908 17.789-14.082 15.605-29.889 15.564-44.113-0.139-5.48-6.047-10.363-12.632-15.763-18.757-28.968-32.857-70.471-32.891-99.62-0.065-5.42 6.104-10.265 12.72-15.724 18.785-14.085 15.644-30.15 15.765-44.209 0.294-5.776-6.357-10.872-13.331-16.599-19.735-28.596-31.956-70.461-31.765-98.773 0.408-6.246 7.098-11.837 14.815-18.473 21.511-12.49 12.606-27.169 12.526-39.653-0.080-5.727-5.784-10.595-12.42-15.879-18.648-30.746-36.254-73.081-36.282-103.78-0.072-5.322 6.277-10.613 12.583-17.776 21.077 0-59.009-0.003-114.466 0.003-169.923 0-3.828-0.194-7.16 4.267-9.692 9.073-5.152 15.456-13.45 22.288-21.204 16.421-18.635 50.473-18.914 65.077-0.103 26.335 33.926 55.439 37.893 84.933 0.142 15.241-19.508 49.805-19.239 64.847 0.036 27.238 34.904 56.536 36.515 85.067-0.077 9.671-12.405 24.949-16.78 41.739-12.449 11.754 3.030 20.602 8.809 28.454 18.197 24.386 29.156 49.177 28.746 74.229-0.274 1.967-2.277 3.601-4.963 5.916-6.793 12.11-9.571 24.946-15.461 41.261-11.13 11.765 3.123 20.533 8.967 28.397 18.282 24.629 29.169 49.141 28.704 74.217-0.462 1.68-1.954 3.097-4.21 5.031-5.864 12.196-10.44 25.398-16.269 42.188-11.909 11.796 3.064 20.53 8.956 28.369 18.297 24.107 28.728 49.005 28.529 73.357 0.356 1.967-2.277 3.621-4.907 5.882-6.83 12.209-10.384 25.362-15.773 42.216-11.904 13.693 3.144 22.11 11.615 30.844 21.382 22.053 24.662 45.967 24.438 68.303 0.188 2.909-3.159 5.222-6.953 8.44-9.726 12.162-10.477 25.295-14.916 42.242-11.945 23.049 4.037 29.902 27.576 48.419 36.466 1.045 0.501 0.885 4.008 0.888 6.117 0.049 55.821 0.041 111.64 0.041 171.025zM629.661 357.68c0 0.026 0 0.052 0 0.077-100.226 0-200.452 0.005-300.681-0.003-65.815-0.005-131.63-0.23-197.44 0.199-9.23 0.059-11.677-2.501-11.15-11.383 0.759-12.859 0.108-25.798 0.237-38.703 0.031-3.219-1.582-7.596 2.622-9.142 21.041-7.738 32.24-26.255 46.54-41.501 12.854-13.706 28.351-13.282 41.55 0.627 7.978 8.409 14.818 17.941 23.116 25.994 25.375 24.626 61.118 24.791 86.694 0.387 8.048-7.681 14.658-16.844 22.239-25.042 15.019-16.24 30.178-16.080 45.146 0.374 7.514 8.262 14.188 17.368 22.259 25.021 25.217 23.914 60.712 23.761 85.7-0.258 7.405-7.119 13.731-15.365 20.502-23.139 16.4-18.832 32.093-18.752 48.633 0.225 7.054 8.094 13.597 16.762 21.433 24.025 24.466 22.68 59.471 22.646 83.862-0.142 8.435-7.88 15.363-17.355 23.199-25.901 14.994-16.354 30.31-16.362 45.182-0.039 7.521 8.254 14.188 17.366 22.249 25.034 25.555 24.316 61.585 23.922 86.701-0.681 6.12-5.996 11.545-12.727 17.046-19.325 19.319-23.17 34.45-23.209 53.601-0.271 6.326 7.578 12.634 15.316 19.913 21.924 24.216 21.981 58.993 21.857 82.886-0.511 9.054-8.476 16.78-18.395 24.938-27.806 7.875-9.085 17.861-11.974 29.053-9.013 8.66 2.292 14.059 9.522 19.461 16.245 10.528 13.102 20.956 26.386 37.446 32.498 5.531 2.049 4.927 6.166 4.917 10.448-0.034 12.474-0.679 24.995 0.201 37.408 0.71 10.015-2.289 12.647-12.511 12.624-165.184-0.356-330.366-0.25-495.546-0.25zM628.874 393.696c0-0.031 0-0.059 0-0.090 116.526 0 233.052 0.119 349.575-0.222 9.596-0.028 12.34 2.269 12.116 12.067-0.697 30.514-0.253 61.053-0.256 91.582 0 14.96-5.771 18.504-19.65 12.263-5.696-2.56-9.674-7.031-13.659-11.509-6.853-7.699-13.047-16.072-20.481-23.15-25.406-24.182-61.66-23.991-86.781 0.493-8.587 8.37-15.703 18.228-24.069 26.846-12.947 13.336-27.478 13.259-40.44-0.199-8.038-8.342-14.826-17.915-23.072-26.023-25.94-25.504-62.718-25.452-88.689 0.003-6.724 6.59-12.389 14.255-18.635 21.34-17.497 19.851-31.902 19.898-49.283 0.183-6.533-7.41-12.49-15.409-19.588-22.221-25.749-24.704-62.331-24.448-87.741 0.529-6.719 6.602-12.503 14.157-18.703 21.289-17.298 19.903-31.969 20.089-49.265 0.537-6.262-7.077-11.95-14.717-18.654-21.338-25.973-25.651-62.529-25.955-88.699-0.645-7.382 7.139-13.664 15.417-20.434 23.186-4.86 5.578-10.169 10.621-17.613 12.384-12.954 3.066-17.107-0.336-17.11-13.649-0.003-30.098 0.459-60.209-0.256-90.292-0.245-10.371 1.918-13.695 13.099-13.651 116.097 0.465 232.192 0.287 348.289 0.287zM628.954 568.462c-27.094 0-54.187 0-81.281 0-89.884 0.003-179.765-0.124-269.646 0.212-8.654 0.034-10.65-2.555-10.554-10.758 0.093-7.914 1.36-11.112 10.402-10.616 22.412 1.226 39.294-9.914 53.207-26.479 5.526-6.579 10.758-13.484 16.875-19.472 11.876-11.625 25.775-11.587 37.63 0.034 5.807 5.691 10.763 12.255 16.052 18.47 32.127 37.759 75.074 37.421 106.472-0.836 4.362-5.314 8.556-10.804 13.308-15.755 13.404-13.969 28.062-14.134 41.406-0.287 6.548 6.796 12.123 14.519 18.563 21.426 29.726 31.879 69.772 31.298 98.698-1.311 6.556-7.39 12.49-15.399 19.554-22.254 11.339-11.008 25.31-10.949 36.605 0.204 7.927 7.826 14.658 16.844 22.249 25.029 13.53 14.593 30.015 22.497 50.321 21.464 23.532-1.198 39.271-14.795 53.232-32.116 24.892-30.888 38.203-30.836 62.372-0.16 15.303 19.425 33.25 33.634 59.623 32.176 5.41-0.299 6.045 2.093 6.411 6.726 0.787 9.932-0.369 14.753-13.153 14.681-116.11-0.648-232.228-0.377-348.346-0.377zM474.887 701.853c0-30.939 0.498-58.353-0.258-85.733-0.284-10.252 3.332-11.845 12.542-11.723 38.226 0.508 76.465 0.178 114.698 0.17 56.706-0.013 113.413-0.062 170.122 0.077 4.465 0.010 11.148-2.739 11.132 6.156-0.044 29.406-0.018 58.815-0.018 91.368-8.076-9.132-13.651-15.985-19.794-22.285-27.793-28.506-65.376-28.542-93.157-0.039-5.676 5.826-10.551 12.428-15.835 18.638-17.293 20.329-33.025 20.401-50.339 0.348-6.726-7.792-13.068-16.026-20.538-23.044-24.662-23.173-60.201-23.013-84.698 0.263-7.671 7.289-14.428 15.541-23.857 25.803zM628.931 770.574c-47.255 0-94.509 0.072-141.764-0.126-4.153-0.018-11.145 2.844-11.741-3.846-0.645-7.243-4.672-17.815 2.697-21.668 17.949-9.39 28.851-25.225 41.78-39.424 13.582-14.916 29.499-14.562 43.251 0.542 6.644 7.297 12.418 15.404 19.257 22.497 27.517 28.539 67.335 28.013 94.259-1.102 5.242-5.668 9.953-11.824 14.955-17.714 17.231-20.29 33.11-20.406 50.029-0.222 11.011 13.138 21.516 26.42 37.315 34.829 8.732 4.649 4.109 14.96 3.557 22.417-0.48 6.473-7.64 3.675-11.829 3.691-47.257 0.191-94.512 0.119-141.766 0.126zM672.487 874.383c0.279 23.431-19.867 43.695-43.404 43.657-23.284-0.036-42.745-18.919-43.509-42.214-0.764-23.217 19.162-43.871 42.758-44.322 23.475-0.449 43.876 19.363 44.155 42.88zM1205.871 11.587c-20.189 3.792-33.5 16.134-44.883 31.076-5.428 7.124-9.976 7.573-15.912 0.281-9.171-11.264-18.406-22.592-33.216-27.316-4.997-1.593-5.704-6.69-0.839-8.314 16.080-5.366 25.615-18.068 36.097-29.848 4.045-4.545 8.001-4.661 11.713 0.147 12.221 15.835 26.516 28.823 47.040 33.972zM52.83 11.432c20.114-5.038 33.918-17.944 45.861-33.441 5.606-7.276 10.012-3.299 14.348 1.747 9.173 10.678 17.82 21.813 32.15 26.552 5.844 1.933 7.064 7.041 0.343 9.452-14.090 5.054-23.343 15.572-32.101 26.634-6.084 7.684-10.869 7.782-16.78-0.062-11.042-14.658-24.182-26.57-43.822-30.883zM857.334 48.763c-6.249 0.392-7.715-2.016-9.408-3.786-10.851-11.334-19.867-24.634-36.161-29.685-4.566-1.417-4.328-6.884 0.472-8.43 14.764-4.749 24.113-15.835 33.26-27.122 5.828-7.193 10.407-7.067 16.217 0.041 8.902 10.89 17.742 21.846 32.122 26.521 5.965 1.938 6.804 7.080 0.194 9.462-13.176 4.749-22.014 14.359-30.431 24.68-2.7 3.312-5.147 6.827-6.264 8.319zM1003.029-26.063c3.446-0.013 5.33 2.563 7.235 4.754 9.803 11.277 18.906 23.183 34.153 28.051 4.576 1.461 5.614 7.010 0.813 8.474-16.356 4.989-25.604 18.060-36.086 29.719-4.889 5.436-8.11 4.096-12.286-0.563-10.206-11.388-19.397-23.782-35.072-29.011-6.066-2.024-3.967-7.431 0.991-8.967 14.464-4.481 22.951-15.819 32.31-26.317 2.227-2.504 4.202-5.485 7.942-6.14zM299.324 12.238c-0.462 0.638-1.18 2.78-2.38 3.097-16.63 4.388-25.847 17.864-36.339 29.628-4.92 5.516-8.2 3.954-12.34-0.687-9.953-11.153-18.958-23.258-34.081-28.632-6.662-2.367-5.296-7.596 0.586-9.509 13.977-4.545 22.768-15.035 31.309-25.788 6.047-7.612 10.915-8.074 17.175-0.168 8.799 11.112 17.933 22.076 32.449 26.34 2.024 0.594 3.732 2.14 3.621 5.717zM404.456-26.068c2.896 0.096 4.615 2.142 6.295 4.042 10.206 11.545 19.539 23.914 35.258 29.050 4.793 1.567 4.716 6.902-0.106 8.42-15.383 4.84-24.613 16.777-34.285 28.193-5.129 6.053-8.936 6.308-14.209 0.098-9.679-11.401-18.971-23.188-34.223-28.346-6.228-2.106-4.117-7.356 0.844-8.982 14.369-4.71 23.145-15.786 32.38-26.528 2.191-2.553 4.194-5.547 8.045-5.947zM555.414-26.035c0.94 0.663 2.537 1.425 3.65 2.633 10.977 11.948 20.587 25.354 37.183 30.761 4.006 1.306 3.934 6.744-0.005 7.88-16.529 4.765-25.744 18.057-36.275 29.775-5.031 5.598-8.342 3.611-12.371-0.896-9.963-11.143-18.863-23.467-34.171-28.431-6.303-2.044-5.402-7.088-0.248-8.876 15.133-5.247 24.394-17.002 34.202-28.379 1.913-2.22 3.892-4.723 8.035-4.468zM702.954 49.059c-1.373-1.18-3.090-2.424-4.53-3.931-10.895-11.393-19.913-24.807-36.326-29.837-4.61-1.412-4.372-6.796 0.514-8.417 15.208-5.046 24.66-16.713 34.217-28.322 5.32-6.463 9.676-5.253 14.544 0.56 9.362 11.174 18.401 22.628 33.268 27.471 5.136 1.673 6.533 6.915 0.297 8.972-14.844 4.896-23.687 16.519-33.451 27.329-2.23 2.46-4.21 5.524-8.533 6.177z" />
<glyph unicode="&#xe907;" horiz-adv-x="1258" d="M582.714 806.51c-16.516 16.653-28.291 33.663-31.871 56.051-5.459 34.145 12.423 68.662 44.23 83.792 31.993 15.218 71.633 7.449 93.453-20.009 7.439-9.362 12.702-10.102 22.93-5.023 25.677 12.743 52.037 24.107 78.179 35.911 12.242 5.529 23.147 2.586 27.501-7.124 4.579-10.211 0.083-20.151-12.126-25.731-28.81-13.174-57.669-26.239-86.606-39.134-6.272-2.795-9.865-5.58-10.244-13.848-1.18-25.702-13.13-46.434-34.246-62.364 4.383-3.939 8.789-2.377 12.717-2.39 40.428-0.124 80.86-0.39 121.283 0.090 9.209 0.108 11.372-2.731 11.318-11.587-0.364-59.352 0.090-118.709-0.405-178.059-0.085-10.211 2.638-12.833 12.774-12.751 61.069 0.49 122.147 0.005 183.216 0.511 9.808 0.080 11.935-2.584 11.86-12.082-0.467-60.212-0.227-120.428-0.243-180.643-0.005-18.599-0.034-18.506 19.196-18.46 38.278 0.090 76.563-0.302 114.83 0.333 10.412 0.173 13.543-2.142 13.484-13.21-0.511-96.342-0.206-192.686-0.457-289.028-0.021-8.267 3.1-13.277 8.283-19.727 13.36-16.635 29.972-25.994 50.202-30.702 6.21-1.445 11.821-5.069 16.651-9.465 11.883-10.815 12.402-28.802 0.916-40.126-3.002-2.958-6.566-6.099-10.446-7.284-24.507-7.493-45.032-19.962-63.224-38.861-15.156-15.745-37.188-11.22-54.636 7.116-9.759 10.255-18.375 21.093-33.668 24.159-15.572 3.123-28.436-1.311-40.064-10.75-4.62-3.75-8.050-8.933-12.273-13.218-21.49-21.815-43.613-21.808-64.602 0.764-9.426 10.136-18.253 19.993-32.798 23.134-15.536 3.358-28.361-1.319-40.066-10.67-3.644-2.911-6.321-7.015-9.555-10.464-23.96-25.545-46.509-25.594-69.893 0.87-8.512 9.633-17.443 17.131-30.219 20.158-16.005 3.794-31.030 0.163-40.613-11.731-30.983-38.448-58.121-35.575-87.132-0.191-15.396 18.777-47.236 18.839-62.566 0.15-30.653-37.374-57.432-36.355-87.145-0.101-15.254 18.612-45.639 17.337-62.96 0.325-4.29-4.212-7.994-9.016-12.26-13.254-20.323-20.171-41.679-20.233-61.931 0.018-10.211 10.211-18.625 22.146-34.605 24.998-16.034 2.862-29.326-1.386-40.939-11.886-6.357-5.748-11.543-12.833-18.070-18.349-15.672-13.241-34.816-13.182-50.432 0.121-6.512 5.547-11.917 12.371-18.047 18.39-17.474 17.154-45.985 16.751-63.25-0.17-6.133-6.011-11.501-12.88-18.037-18.388-15.639-13.179-34.793-12.949-50.476 0.17-4.267 3.57-8.492 7.434-11.801 11.86-7.304 9.775-16.873 15.412-28.583 18.114-9.22 2.127-18.179 5.167-25.95 10.776-18.212 13.145-17.629 35.96 1.169 48.202 8.007 5.214 16.955 9.274 26.126 10.379 21.219 2.558 27.801 23.173 42.905 33.123 1.913 1.26 0.857 7.315 0.86 11.148 0.044 96.773 0.25 193.548-0.227 290.318-0.054 10.915 2.78 13.396 13.396 13.22 40.417-0.669 80.86 0.178 121.278-0.542 11.096-0.196 13.148 3.265 13.063 13.626-0.511 61.931-0.034 123.869-0.493 185.802-0.070 9.465 1.925 12.121 11.821 12.036 61.069-0.539 122.147-0.023 183.218-0.521 10.286-0.083 12.815 2.914 12.738 12.895-0.447 58.921 0.041 117.847-0.459 176.768-0.085 10.182 2.591 12.924 12.771 12.763 39.129-0.614 78.274-0.25 117.411-0.25 4.618-0.003 9.227-0.003 13.84-0.003zM1137.498 259.403c-8.118-9.653-13.783-16.627-19.699-23.385-29.233-33.392-71.282-33.252-100.466 0.328-5.356 6.164-10.237 12.753-15.76 18.757-13.747 14.934-29.507 14.89-43.308-0.124-5.521-6.006-10.376-12.614-15.745-18.767-29.445-33.758-72.335-33.394-101.403 0.831-4.731 5.57-9.101 11.45-13.956 16.906-14.532 16.323-30.614 16.457-45.084 0.361-5.17-5.751-9.808-11.971-14.877-17.817-29.481-33.998-71.919-33.848-101.346 0.338-5.046 5.864-9.728 12.049-14.908 17.789-14.082 15.605-29.889 15.564-44.113-0.139-5.48-6.047-10.363-12.632-15.763-18.757-28.968-32.857-70.471-32.891-99.62-0.065-5.42 6.104-10.265 12.72-15.724 18.785-14.085 15.644-30.15 15.765-44.209 0.294-5.776-6.357-10.872-13.331-16.599-19.735-28.596-31.956-70.461-31.765-98.773 0.408-6.246 7.098-11.837 14.815-18.473 21.511-12.49 12.606-27.169 12.526-39.653-0.080-5.727-5.784-10.595-12.42-15.879-18.648-30.746-36.254-73.081-36.282-103.78-0.072-5.322 6.277-10.613 12.583-17.776 21.077 0-59.009-0.003-114.466 0.003-169.923 0-3.828-0.194-7.16 4.267-9.692 9.073-5.152 15.456-13.45 22.288-21.204 16.421-18.635 50.473-18.914 65.077-0.103 26.335 33.926 55.439 37.893 84.933 0.142 15.241-19.508 49.805-19.239 64.847 0.036 27.238 34.904 56.536 36.515 85.067-0.077 9.671-12.405 24.949-16.78 41.739-12.449 11.754 3.030 20.602 8.809 28.454 18.197 24.386 29.156 49.177 28.746 74.229-0.274 1.967-2.277 3.601-4.963 5.916-6.793 12.11-9.571 24.946-15.461 41.261-11.13 11.765 3.123 20.533 8.967 28.397 18.282 24.629 29.169 49.141 28.704 74.217-0.462 1.68-1.954 3.097-4.21 5.031-5.864 12.196-10.44 25.398-16.269 42.188-11.909 11.796 3.064 20.53 8.956 28.369 18.297 24.107 28.728 49.005 28.529 73.357 0.356 1.967-2.277 3.621-4.907 5.882-6.83 12.209-10.384 25.362-15.773 42.216-11.904 13.693 3.144 22.11 11.615 30.844 21.382 22.053 24.662 45.967 24.438 68.303 0.188 2.909-3.159 5.222-6.953 8.44-9.726 12.162-10.477 25.295-14.916 42.242-11.945 23.049 4.037 29.902 27.576 48.419 36.466 1.045 0.501 0.885 4.008 0.888 6.117 0.049 55.821 0.041 111.64 0.041 171.025zM629.661 357.68c0 0.026 0 0.052 0 0.077-100.226 0-200.452 0.005-300.681-0.003-65.815-0.005-131.63-0.23-197.44 0.199-9.23 0.059-11.677-2.501-11.15-11.383 0.759-12.859 0.108-25.798 0.237-38.703 0.031-3.219-1.582-7.596 2.622-9.142 21.041-7.738 32.24-26.255 46.54-41.501 12.854-13.706 28.351-13.282 41.55 0.627 7.978 8.409 14.818 17.941 23.116 25.994 25.375 24.626 61.118 24.791 86.694 0.387 8.048-7.681 14.658-16.844 22.239-25.042 15.019-16.24 30.178-16.080 45.146 0.374 7.514 8.262 14.188 17.368 22.259 25.021 25.217 23.914 60.712 23.761 85.7-0.258 7.405-7.119 13.731-15.365 20.502-23.139 16.4-18.832 32.093-18.752 48.633 0.225 7.054 8.094 13.597 16.762 21.433 24.025 24.466 22.68 59.471 22.646 83.862-0.142 8.435-7.88 15.363-17.355 23.199-25.901 14.994-16.354 30.31-16.362 45.182-0.039 7.521 8.254 14.188 17.366 22.249 25.034 25.555 24.316 61.585 23.922 86.701-0.681 6.12-5.996 11.545-12.727 17.046-19.325 19.319-23.17 34.45-23.209 53.601-0.271 6.326 7.578 12.634 15.316 19.913 21.924 24.216 21.981 58.993 21.857 82.886-0.511 9.054-8.476 16.78-18.395 24.938-27.806 7.875-9.085 17.861-11.974 29.053-9.013 8.66 2.292 14.059 9.522 19.461 16.245 10.528 13.102 20.956 26.386 37.446 32.498 5.531 2.049 4.927 6.166 4.917 10.448-0.034 12.474-0.679 24.995 0.201 37.408 0.71 10.015-2.289 12.647-12.511 12.624-165.184-0.356-330.366-0.25-495.546-0.25zM628.874 393.696c0-0.031 0-0.059 0-0.090 116.526 0 233.052 0.119 349.577-0.222 9.596-0.028 12.34 2.269 12.116 12.067-0.697 30.514-0.253 61.053-0.256 91.582 0 14.96-5.771 18.504-19.65 12.263-5.696-2.56-9.674-7.031-13.659-11.509-6.853-7.699-13.047-16.072-20.481-23.15-25.406-24.182-61.66-23.991-86.781 0.493-8.587 8.37-15.703 18.228-24.069 26.846-12.947 13.336-27.478 13.259-40.44-0.199-8.038-8.342-14.826-17.915-23.072-26.023-25.94-25.504-62.718-25.452-88.689 0.003-6.724 6.59-12.389 14.255-18.635 21.34-17.497 19.851-31.902 19.898-49.283 0.183-6.533-7.41-12.49-15.409-19.588-22.221-25.749-24.704-62.331-24.448-87.741 0.529-6.719 6.602-12.503 14.157-18.703 21.289-17.298 19.903-31.969 20.089-49.265 0.537-6.262-7.077-11.95-14.717-18.654-21.338-25.973-25.651-62.529-25.955-88.699-0.645-7.382 7.139-13.664 15.417-20.434 23.186-4.86 5.578-10.169 10.621-17.613 12.384-12.954 3.066-17.107-0.336-17.11-13.649-0.003-30.098 0.459-60.209-0.256-90.292-0.245-10.371 1.918-13.695 13.099-13.651 116.095 0.465 232.189 0.287 348.287 0.287zM628.954 568.462c-27.094 0-54.187 0-81.281 0-89.884 0.003-179.765-0.124-269.646 0.212-8.654 0.034-10.65-2.555-10.554-10.758 0.093-7.914 1.36-11.112 10.402-10.616 22.412 1.226 39.294-9.914 53.207-26.479 5.526-6.579 10.758-13.484 16.875-19.472 11.876-11.625 25.775-11.587 37.63 0.034 5.807 5.691 10.763 12.255 16.052 18.47 32.127 37.759 75.074 37.421 106.472-0.836 4.362-5.314 8.556-10.804 13.308-15.755 13.404-13.969 28.062-14.134 41.406-0.287 6.548 6.796 12.123 14.519 18.563 21.426 29.726 31.879 69.772 31.298 98.698-1.311 6.556-7.39 12.49-15.399 19.554-22.254 11.339-11.008 25.31-10.949 36.605 0.204 7.927 7.826 14.658 16.844 22.249 25.029 13.53 14.593 30.015 22.497 50.321 21.464 23.532-1.198 39.271-14.795 53.232-32.116 24.892-30.888 38.203-30.836 62.372-0.16 15.303 19.425 33.25 33.634 59.623 32.176 5.41-0.299 6.045 2.093 6.411 6.726 0.787 9.932-0.369 14.753-13.153 14.681-116.11-0.648-232.228-0.377-348.346-0.377zM474.887 701.853c0-30.939 0.498-58.353-0.258-85.733-0.284-10.252 3.332-11.845 12.542-11.723 38.226 0.508 76.465 0.178 114.698 0.17 56.706-0.013 113.413-0.062 170.122 0.077 4.465 0.010 11.148-2.739 11.132 6.156-0.044 29.406-0.018 58.815-0.018 91.368-8.076-9.132-13.651-15.985-19.794-22.285-27.793-28.506-65.376-28.542-93.157-0.039-5.676 5.826-10.551 12.428-15.835 18.638-17.293 20.329-33.025 20.401-50.339 0.348-6.726-7.792-13.068-16.026-20.538-23.044-24.662-23.173-60.201-23.013-84.698 0.263-7.671 7.289-14.428 15.541-23.857 25.803zM628.931 770.574c-47.255 0-94.509 0.072-141.764-0.126-4.153-0.018-11.145 2.844-11.741-3.846-0.645-7.243-4.672-17.815 2.697-21.668 17.949-9.39 28.851-25.225 41.78-39.424 13.582-14.916 29.499-14.562 43.251 0.542 6.644 7.297 12.418 15.404 19.257 22.497 27.517 28.539 67.335 28.013 94.259-1.102 5.242-5.668 9.953-11.824 14.955-17.714 17.231-20.29 33.11-20.406 50.029-0.222 11.011 13.138 21.516 26.42 37.315 34.829 8.732 4.649 4.109 14.96 3.557 22.417-0.48 6.473-7.64 3.675-11.829 3.691-47.257 0.191-94.512 0.119-141.766 0.126zM672.487 874.383c0.279 23.431-19.867 43.695-43.404 43.657-23.284-0.036-42.745-18.919-43.509-42.214-0.764-23.217 19.162-43.871 42.758-44.322 23.475-0.449 43.876 19.363 44.155 42.88zM1205.871 11.587c-20.189 3.792-33.5 16.134-44.883 31.076-5.428 7.124-9.976 7.573-15.912 0.281-9.171-11.264-18.406-22.592-33.216-27.316-4.997-1.593-5.704-6.69-0.839-8.314 16.080-5.366 25.615-18.068 36.097-29.848 4.045-4.545 8.001-4.661 11.713 0.147 12.221 15.835 26.516 28.823 47.040 33.972zM52.83 11.432c20.114-5.038 33.918-17.944 45.861-33.441 5.606-7.276 10.012-3.299 14.348 1.747 9.173 10.678 17.82 21.813 32.15 26.552 5.844 1.933 7.064 7.041 0.343 9.452-14.090 5.054-23.343 15.572-32.101 26.634-6.084 7.684-10.869 7.782-16.78-0.062-11.042-14.658-24.182-26.57-43.822-30.883zM857.334 48.763c-6.249 0.392-7.715-2.016-9.408-3.786-10.851-11.334-19.867-24.634-36.161-29.685-4.566-1.417-4.328-6.884 0.472-8.43 14.764-4.749 24.113-15.835 33.26-27.122 5.828-7.193 10.407-7.067 16.217 0.041 8.902 10.89 17.742 21.846 32.122 26.521 5.965 1.938 6.804 7.080 0.194 9.462-13.176 4.749-22.014 14.359-30.431 24.68-2.7 3.312-5.147 6.827-6.264 8.319zM1003.031-26.063c3.446-0.013 5.33 2.563 7.235 4.754 9.803 11.277 18.906 23.183 34.153 28.051 4.576 1.461 5.614 7.010 0.813 8.474-16.356 4.989-25.604 18.060-36.086 29.719-4.889 5.436-8.11 4.096-12.286-0.563-10.206-11.388-19.397-23.782-35.072-29.011-6.066-2.024-3.967-7.431 0.991-8.967 14.464-4.481 22.951-15.819 32.31-26.317 2.225-2.504 4.199-5.485 7.942-6.14zM299.324 12.238c-0.462 0.638-1.18 2.78-2.38 3.097-16.63 4.388-25.847 17.864-36.339 29.628-4.92 5.516-8.2 3.954-12.34-0.687-9.953-11.153-18.958-23.258-34.081-28.632-6.662-2.367-5.296-7.596 0.586-9.509 13.977-4.545 22.768-15.035 31.309-25.788 6.047-7.612 10.915-8.074 17.175-0.168 8.799 11.112 17.933 22.076 32.449 26.34 2.024 0.594 3.732 2.14 3.621 5.717zM404.456-26.068c2.896 0.096 4.615 2.142 6.295 4.042 10.206 11.545 19.539 23.914 35.258 29.050 4.793 1.567 4.716 6.902-0.106 8.42-15.383 4.84-24.613 16.777-34.285 28.193-5.129 6.053-8.936 6.308-14.209 0.098-9.679-11.401-18.971-23.188-34.223-28.346-6.228-2.106-4.117-7.356 0.844-8.982 14.369-4.71 23.145-15.786 32.38-26.528 2.191-2.553 4.194-5.547 8.045-5.947zM555.414-26.035c0.94 0.663 2.537 1.425 3.65 2.633 10.977 11.948 20.587 25.354 37.183 30.761 4.006 1.306 3.934 6.744-0.005 7.88-16.529 4.765-25.744 18.057-36.275 29.775-5.031 5.598-8.342 3.611-12.371-0.896-9.963-11.143-18.863-23.467-34.171-28.431-6.303-2.044-5.402-7.088-0.248-8.876 15.133-5.247 24.394-17.002 34.202-28.379 1.913-2.22 3.892-4.723 8.035-4.468zM702.954 49.059c-1.373-1.18-3.090-2.424-4.53-3.931-10.895-11.393-19.913-24.807-36.326-29.837-4.61-1.412-4.372-6.796 0.514-8.417 15.208-5.046 24.66-16.713 34.217-28.322 5.32-6.463 9.676-5.253 14.544 0.56 9.362 11.174 18.401 22.628 33.268 27.471 5.136 1.673 6.533 6.915 0.297 8.972-14.844 4.896-23.687 16.519-33.451 27.329-2.23 2.46-4.21 5.524-8.533 6.177z" />
<glyph unicode="&#xe908;" horiz-adv-x="1258" d="M1205.871 11.587c-20.525-5.149-34.819-18.135-47.040-33.97-3.712-4.809-7.668-4.692-11.713-0.147-10.482 11.78-20.019 24.482-36.097 29.848-4.865 1.624-4.158 6.721 0.839 8.314 14.808 4.721 24.045 16.052 33.216 27.316 5.937 7.289 10.484 6.842 15.912-0.281 11.385-14.944 24.693-27.287 44.883-31.079z" />
<glyph unicode="&#xe909;" horiz-adv-x="1258" d="M52.83 11.432c19.639 4.313 32.78 16.225 43.822 30.88 5.911 7.844 10.696 7.746 16.78 0.062 8.758-11.063 18.008-21.578 32.101-26.634 6.721-2.411 5.5-7.519-0.343-9.452-14.333-4.739-22.977-15.874-32.15-26.552-4.336-5.046-8.742-9.023-14.348-1.747-11.94 15.502-25.746 28.405-45.861 33.443z" />
<glyph unicode="&#xe90a;" horiz-adv-x="1258" d="M857.334 48.763c1.118-1.492 3.564-5.007 6.264-8.316 8.42-10.322 17.255-19.934 30.431-24.68 6.61-2.382 5.771-7.521-0.194-9.462-14.379-4.674-23.219-15.631-32.122-26.521-5.81-7.108-10.389-7.235-16.217-0.041-9.147 11.287-18.496 22.373-33.26 27.122-4.803 1.546-5.041 7.013-0.472 8.43 16.294 5.051 25.313 18.352 36.161 29.685 1.693 1.768 3.159 4.176 9.408 3.784z" />
<glyph unicode="&#xe90b;" horiz-adv-x="1258" d="M1003.013-26.063c-3.725 0.653-5.696 3.634-7.927 6.138-9.359 10.5-17.843 21.839-32.31 26.317-4.958 1.536-7.057 6.943-0.991 8.967 15.675 5.229 24.866 17.626 35.072 29.011 4.176 4.659 7.397 5.998 12.286 0.563 10.482-11.659 19.73-24.729 36.086-29.719 4.801-1.463 3.763-7.013-0.813-8.474-15.246-4.868-24.35-16.774-34.153-28.051-1.905-2.189-3.789-4.767-7.25-4.752z" />
<glyph unicode="&#xe90c;" horiz-adv-x="1258" d="M299.324 12.238c0.114-3.577-1.595-5.126-3.621-5.72-14.513-4.261-23.651-15.228-32.449-26.34-6.259-7.903-11.13-7.441-17.175 0.168-8.543 10.753-17.332 21.242-31.309 25.788-5.882 1.913-7.248 7.142-0.586 9.509 15.123 5.374 24.131 17.479 34.081 28.632 4.14 4.641 7.423 6.202 12.34 0.687 10.492-11.765 19.709-25.24 36.339-29.628 1.198-0.312 1.915-2.457 2.38-3.095z" />
<glyph unicode="&#xe90d;" horiz-adv-x="1258" d="M404.441-26.079c-3.835 0.413-5.838 3.407-8.030 5.955-9.235 10.742-18.013 21.818-32.38 26.528-4.961 1.626-7.070 6.876-0.844 8.982 15.252 5.157 24.544 16.945 34.223 28.346 5.271 6.21 9.080 5.955 14.209-0.098 9.671-11.416 18.901-23.356 34.285-28.193 4.821-1.515 4.899-6.853 0.106-8.42-15.721-5.136-25.052-17.505-35.258-29.050-1.68-1.897-3.402-3.944-6.311-4.050z" />
<glyph unicode="&#xe90e;" horiz-adv-x="1258" d="M555.414-26.035c-4.145-0.256-6.125 2.248-8.038 4.468-9.806 11.377-19.069 23.132-34.202 28.379-5.157 1.789-6.055 6.832 0.248 8.876 15.311 4.963 24.208 17.291 34.171 28.431 4.029 4.507 7.341 6.494 12.371 0.896 10.531-11.716 19.748-25.008 36.275-29.775 3.939-1.136 4.008-6.574 0.005-7.88-16.596-5.407-26.203-18.816-37.183-30.761-1.107-1.208-2.708-1.969-3.647-2.633z" />
<glyph unicode="&#xe90f;" horiz-adv-x="1258" d="M702.954 49.059c4.323-0.653 6.306-3.717 8.528-6.177 9.764-10.807 18.607-22.432 33.451-27.329 6.236-2.057 4.84-7.299-0.297-8.972-14.867-4.842-23.906-16.294-33.268-27.471-4.868-5.813-9.222-7.023-14.544-0.56-9.558 11.61-19.010 23.279-34.217 28.322-4.886 1.621-5.123 7.005-0.514 8.417 16.413 5.028 25.434 18.444 36.326 29.837 1.445 1.507 3.162 2.751 4.535 3.931z" />
</font></defs></svg>